…
``` r
#There are 1, 384, 617 observations with 15 variables. Some of these variables include order IDs, product IDs, and name of products. There are 134 aisles. The top three aisles with the most purchases is fresh fruits, fresh vegetables, and packaged vegatbles and fruits.
```

\#Counting amount of aisles

``` r
instacart %>% 
  count(aisle)
```

    ## # A tibble: 134 x 2
    ##    aisle                      n
    ##    <chr>                  <int>
    ##  1 air fresheners candles  1067
    ##  2 asian foods             7007
    ##  3 baby accessories         306
    ##  4 baby bath body care      328
    ##  5 baby food formula      13198
    ##  6 bakery desserts         1501
    ##  7 baking ingredients     13088
    ##  8 baking supplies decor   1094
    ##  9 beauty                   287
    ## 10 beers coolers           1839
    ## # ... with 124 more rows
…
